Homework_1
…
Text B
114211
19922
3332

word_counts <- texts %>%
  unnest_tokens(word, text) %>%
  mutate(word = str_to_lower(word)) %>%
  anti_join(all_stopwords, by = "word") %>%
  count(doc_title, word, sort = TRUE)

word_counts

# A tibble: 7,443 × 3
   doc_title word            n
   <chr>     <chr>       <int>
 1 Text A    trade         232
 2 Text A    exchange      186
 3 Text B    trade         185
 4 Text A    ſo            184
 5 Text A    malynes       158
 6 Text A    merchants     126
 7 Text A    mony          118
 8 Text A    hee           115
 9 Text A    kingdome      113
10 Text A    commodities    96
# ℹ 7,433 more rows
…
